timestamp	step	learning_rate
1663510626823	0	0.05
1663510628085	1	0.05
1663510959874	2	0.083
1663511285371	3	0.10333500000000001
1663511620140	4	0.1143574
1663511945700	5	0.1186458025
1663512274465	6	0.11817121928999996
1663512601139	7	0.11442913067914998
1663512924634	8	0.10854420395850797
1663513247452	9	0.10135315044625681
1663513573605	10	0.09347012763377016
1663513898384	11	0.08533822652963215
1663514221890	12	0.07726988511228511
1663514548818	13	0.06947850503012969
1663514875140	14	0.06210309449616208
1663515202339	15	0.05522739474837271
1663515528447	16	0.04889465348389263
1663515856097	17	0.04311897254110781
1663516182202	18	0.03789396763318534
1663516506728	19	0.03319932608751848
1663516832596	20	0.029005727002779303
1663517158897	21	0.025278491082922162
1663517482165	22	0.021980249865436126
1663517807391	23	0.019072862269598895
1663518132336	24	0.016518757235235212
1663518455154	25	0.01428184219296378
1663518778668	26	0.012328086180966334
1663519101955	27	0.010625861973671364
1663519431878	28	0.009146112306226759
